{
  "type": "layer-tile",
  "settings": {
    "maxzoom": "19",
    "name": "OpenStreet Map",
    "type": "baselayer",
    "url": "https://{s}.tile.openstreetmap.org/{z}/{x}/{y}.png",
    "addtomap": true
  }
}
