{
    "type": "layer-tile",
    "settings": {
        "maxzoom": "10",
        "name": "Chart: Nav: Glbl",
        "type": "baselayer",
        "url": "https://services.arcgisonline.com/ArcGIS/rest/services/Specialty/World_Navigation_Charts/MapServer/tile/{z}/{y}/{x}",
        "addtomap": false
    }
}