{
  "type": "layer-target",
  "settings": {
    "color": "#FFFFFF",
    "interval": 1000,
    "maxtracklen": 100,
    "name": "FRV Tom Marshall",
    "options": {
      "showdash": false,
      "showrph": false,
      "showbatt": false,
      "showtrack": true,
      "setstate": false,
      "autotrack": true
    },
    "size": {
      "length": 14,
      "loffset": 7,
      "width": 5.5
    },
    "url": "data/platformdata.api.Platform/SHIP_STATUS.TOMMARSHALL",
    "commandurl": ""
  }
}
