{
  "type": "layer-target",
  "settings": {
    "color": "yellow",
    "interval": 1000,
    "maxtracklen": 300,
    "name": "ASVTarget SIM",
    "options": {
      "showdash": true,
      "showrph": true,
      "showbatt": true,
      "showtrack": true,
      "setstate": true,
      "autotrack": false
    },
    "size": {
      "length": 10,
      "loffset": 5,
      "width": 5
    },
    "url": "data/platformdata.api.Platform/ASV_TARGET.AUVSTAT",
    "commandurl": "send_command/platformdata.api.Platform/ASV_TARGET?ip=10.23.14.105&port=8081&template=forms/acfr-send-command.html"
  }
}