{
  "type": "layer-target",
  "settings": {
    "color": "#FFFFFF",
    "interval": 1000,
    "maxtracklen": 100,
    "name": "RV Yellowbox",
    "options": {
      "showdash": false,
      "showrph": false,
      "showbatt": false,
      "showtrack": true,
      "setstate": false,
      "autotrack": true
    },
    "size": {
      "length": 6,
      "loffset": 3,
      "width": 2 
    },
    "url": "data/platformdata.api.Platform/SHIP_STATUS.YELLOWBOX",
    "commandurl": ""
  }
}
