{
  "layers": [
    "targets/acfr-ship-falkor.json",
    "targets/android-ship-soibux.json",
    "targets/ais-ship-soiatreyu.json",
    "targets/soi-rov-subastien.json",
    "targets/telodyne-slocum-orca.json",
    "targets/telodyne-slocum-nemesis.json",
    "tilelayers/basemap-esri-satallite.json",
    "tilelayers/bathy-costa_rica-10m.json",
    "tilelayers/basemap-esri-ocean.json",
    "tilelayers/basemap-osm.json",
    "widgets/ais_receiver.json",
    "missions/soi-falkor-mission.json",
    "missions/soi-rov-subastien.json",
    "missions/features-prior.json",
    "missions/telodyne-slocum-active.json",
    "missions/telodyne-slocum-completed.json",
    "missions/soi-rov-subastien-old.json",
    "missions/squidle_annotations.json",
    "widgets/logconsole-api.json",
    "widgets/soi-falkor-adcp_plot.json",
    "widgets/geotif-click-info.json",
    "targets/telodyne-slocum-killroy.json",
    "targets/telodyne-slocum-nicoya.json",
    "widgets/mers-planner.json"
  ],
  "type": "server",
  "license": "gUhd9TxpnQppnZVAf7cv9lvi/hr39O6Ydni0QzJYPkbMrOiB/WssnwxQEmRvqevc",
  "settings": {
    "showsettings": true,
    "remotepush": {},
    "datalogger": {}
  }
}