{
  "type": "layer-target",
  "settings": {
    "color": "#FFFFFF",
    "interval": 1000,
    "maxtracklen": 300,
    "name": "RV Falkor",
    "options": {
      "showdash": false,
      "showrph": false,
      "showbatt": false,
      "showtrack": true,
      "setstate": true,
      "autotrack": true
    },
    "size": {
      "length": 90,
      "loffset": 60,
      "width": 15
    },
    "url": "data/platformdata.api.Platform/FALKOR.SHIP_STATUS",
    "commandurl": ""
  }
}