{
  "type": "widget",
  "settings": {
    "css": "top:10px; right: 365px; height:210px; width:280px;",
    "name": "Twitter Feed",
    "show": false,
    "icon": "twitter",
    "url": "/templates/html-snippets/twitter-soi.html?twitteracc=SchmidtOcean",
    "type": "iframe-draggable"
  }
}
