{
  "type": "layer-target",
  "settings": {
    "color": "#CCCCCC",
    "interval": 1000,
    "maxtracklen": 300,
    "name": "RV Bux",
    "options": {
      "showdash": false,
      "showrph": false,
      "showbatt": false,
      "showtrack": true,
      "setstate": true,
      "autotrack": false
    },
    "size": {
      "length": 15,
      "loffset": 5,
      "width": 6
    },
    "url": "data/platformdata.api.Platform/ANDROID.TERMUX",
    "commandurl": ""
  }
}
