{
  "type": "layer-target",
  "settings": {
    "color": "orange",
    "interval": 1000,
    "maxtracklen": 100,
    "name": "GLIDER Killroy",
    "options": {
      "showdash": false,
      "showrph": false,
      "showbatt": true,
      "showtrack": true,
      "setstate": true,
      "autotrack": false
    },
    "size": 4,
    "url": "data/platformdata.api.Platform/SLOCUM.kilroy",
    "commandurl": ""
  }
}