{
  "type": "widget",
  "settings": {
    "name": "About this cruise",
    "show": true,
    "icon": "info",
    "url": "https://schmidtocean.org/cruise/new-approaches-autonomous-exploration-crsb/",
    "type": "iframe-modal"
  }
}
