{
  "type": "layer-tile",
  "settings": {
    "maxzoom": "18",
    "name": "Marine traffic",
    "opacity": "0.95",
    "type": "tms-overlay",
    "url": "https://tiles2.marinetraffic.com/ais/density_tiles2016/{z}/{x}/tile_{z}_{x}_{y}.png",
    "addtomap": true
  }
}